C:\Users\kinn\source\Git\ModernWeb\ModernWeb\out-tsc\e2e\app.po.js
C:\Users\kinn\source\Git\ModernWeb\ModernWeb\out-tsc\e2e\app.po.js.map
C:\Users\kinn\source\Git\ModernWeb\ModernWeb\out-tsc\e2e\app.e2e-spec.js
C:\Users\kinn\source\Git\ModernWeb\ModernWeb\out-tsc\e2e\app.e2e-spec.js.map
